Read a Socrata Dataset into R — soc_read • socratadata
…
#> iterating ■■■■■■■■■■■■■■■■■■■               59% | ETA: 31s
#> iterating ■■■■■■■■■■■■■■■■■■■■              64% | ETA: 27s
#> iterating ■■■■■■■■■■■■■■■■■■■■■             68% | ETA: 24s
#> iterating ■■■■■■■■■■■■■■■■■■■■■■            70% | ETA: 22s
#> iterating ■■■■■■■■■■■■■■■■■■■■■■■           73% | ETA: 21s
#> iterating ■■■■■■■■■■■■■■■■■■■■■■■■          77% | ETA: 18s
#> iterating ■■■■■■■■■■■■■■■■■■■■■■■■■■        82% | ETA: 14s
#> iterating ■■■■■■■■■■■■■■■■■■■■■■■■■■        84% | ETA: 13s
#> iterating ■■■■■■■■■■■■■■■■■■■■■■■■■■■       86% | ETA: 11s
#> iterating ■■■■■■■■■■■■■■■■■■■■■■■■■■■■      91% | ETA:  7s
#> iterating ■■■■■■■■■■■■■■■■■■■■■■■■■■■■■     93% | ETA:  5s
#> iterating ■■■■■■■■■■■■■■■■■■■■■■■■■■■■■■    98% | ETA:  2s
#> iterating ■■■■■■■■■■■■■■■■■■■■■■■■■■■■■■■  100% | ETA:  0s
print(cta_ridership)
#> # A tibble: 434,000 × 14
#>    address    camera_id violation_date      violations x_coordinate y_coordinate
#>    <chr>      <chr>     <dttm>                   <dbl>        <dbl>        <dbl>
#>  1 10318 S I… CHI120    2025-06-15 00:00:00        126     1203645.     1837056.
#>  2 10540 S W… CHI205    2025-06-15 00:00:00        525     1162222.     1834494.
#>  3 1111 N HU… CHI010    2025-06-15 00:00:00        116          NA           NA 
#>  4 1142 W IR… CHI095    2025-06-15 00:00:00         91     1167790.     1926747.
#>  5 115 N OGD… CHI077    2025-06-15 00:00:00         36     1166485.     1900735.
#>  6 1274 E 83… CHI197    2025-06-15 00:00:00        120     1186302.     1850256.
#>  7 1306 W 76… CHI185    2025-06-15 00:00:00         46     1168833.     1854443.
#>  8 1315 W GA… CHI121    2025-06-15 00:00:00         83     1168445.     1868118.
#>  9 1334 W GA… CHI119    2025-06-15 00:00:00         95     1168211.     1868328.
#> 10 1461 W GR… CHI208    2025-06-15 00:00:00        150     1166314.     1903542.
#> # ℹ 433,990 more rows
#> # ℹ 8 more variables: latitude <dbl>, longitude <dbl>, location <tibble[,5]>,
#> #   `:@computed_region_awaf_s7ux` <dbl>, `:@computed_region_6mkv_f3dw` <dbl>,
#> #   `:@computed_region_vrxf_vc4k` <dbl>, `:@computed_region_bdys_3d7i` <dbl>,
#> #   `:@computed_region_43wa_7qmu` <dbl>
…
